{
  "type": "service_account",
  "project_id": "gostay-productio-1524449767417",
  "private_key_id": "ae0f92e1c31e2789a59dd4b4d56dc67b319b8bfd",
  "private_key": "-----BEGIN PRIVATE KEY-----\nMIIEvQIBADANBgkqhkiG9w0BAQEFAASCBKcwggSjAgEAAoIBAQC7gheIVOCiTPDW\nez4O7nLAVl1w3nMWtEZdrh0dkavc3pqmKK6JtKiK4YbTprvZdhWSy6/6vglZmcWn\n+itA6Alu/FSmoQ8o8a8zIijRqwnKxlyXrBq912VM94QHDt0t72FEyCDt+HevKY9e\nUTU3jOGvHuZRa334pdZc3HTAH0y2uNwPYbxi7CyUxvHQ81fr8uuFBTv+Z55q/Ie3\n9D3ThWhSstuWxq+F59F88GGuk+7CZsbekvX/GCkBgU2nzB6uAL++RLquDA41FcUZ\nd0TVaX9K3n3AJT2Iwfk3QDyjuLFfKHbITApdKOGjZKzA9OiIt6IJJ7pIRWhfHTAJ\nGdjaeokXAgMBAAECggEAIw2FT6+qVLz0cuwUJF9wJUOf8Tcspaxq0R15BOuUCNS2\nbWSCiGy0602Q0mVDjboU+13HlqTLA6yK9kV+q4IVLWHPg1zthBZ2TaVPoy6JxJYD\nfjkmwKGRJuvIizc8otcyxFRzT3lZCm5HBndA7xMPp5irrsHdCUwbQD3YN4hCY4/m\nIyjlJZHVZjSYhFu4Ev2TwdSTw7tpbqshChgYxW9IhygzxOgM2PO/c4Yqqtvd85AF\nmyDnpVZaY93+bx1scISQd8thoCSJ5x1zCrQ5YZ77zHAExYpGHjz7LWVKda+KcGJa\nDG9dVmCLiI1lhku/M1oZoUvqfOydDQUPWX0s0zKoeQKBgQDuR0INDBWHDZN/vM+E\nOTFVGSW2Nqc3i2Lb1yBNn6MyXtMBeFUho5gZzqYxyO7t+un3PHOfapKdbvb8ylQM\nng101Ywv15q9FTN8NCzVfCqjT4HTxnYtE8nSbSNc/WLWlaDyv4Hw2YX7AMlwMI5g\nkOhRo5QeiHsAY4uEIFjiJBBQeQKBgQDJdC+vNEHJ1UQq8PUl5XoEAl2CaN9QKz2H\nXorOpN0qUK0xUteyMz9rzc7bwt0JvAGOV6wAFB6UD9IzQQngpVo2lK7GgQTRCwCH\nDmhIQa2oqhfXMRZIxQ8wwlnOwZ1DFpM39WkpA3dmCEuaQ/Wfdntd/cxyyX6TyYBX\nbZXW6ZPiDwKBgGYSLF8+b/JchHTRwutXPKTBkwANRXBryzt1WicmXVh0eltE2uMA\nG2XiuhrVglR7icIZKUZ+9rNuF2uOmJaXFhiYaecMqwKYlGd+Sj5hZDp1Ep5Pg8wn\nj+sOSXnKKY7Wpg2Wr+kmpVgyrBfdFQCU0pA2THsP5/Dws5Ez8h9dZ4exAoGADr+g\n1hTfVCV27iXh7LpWKoD505hV8QqZYJW9V8+eGYD6jQfhnrw9wmi44kHr6NCI1KD6\niK7wZiqaWwJB9N5mMmTEPugnMB68FScq309fpV9+i1SeqwkySYGRDaADIWw/rvMa\nldQZI7Erx8l97ATCl2kDVMwHpk40RTJSq/9BwmUCgYEA6Du3+uQeIVAkSTE8xz/B\nDzp4ZQdSqcEZldI4NX6NiLiffJRcMSrC0/Smna+5EhK0UbplooWxshXbBHCzatHI\nHH/eyDwPSbrG8TJKto0KEiwRz3GmfgpiVbe0i/dCsxkgHs2nR6cVZ1hak0O4be+b\neBJaAFyrFQrU+Kp/gOVFCFY=\n-----END PRIVATE KEY-----\n",
  "client_email": "facial-detection-app@gostay-productio-1524449767417.iam.gserviceaccount.com",
  "client_id": "108561152785688183870",
  "auth_uri": "https://accounts.google.com/o/oauth2/auth",
  "token_uri": "https://oauth2.googleapis.com/token",
  "auth_provider_x509_cert_url": "https://www.googleapis.com/oauth2/v1/certs",
  "client_x509_cert_url": "https://www.googleapis.com/robot/v1/metadata/x509/facial-detection-app%40gostay-productio-1524449767417.iam.gserviceaccount.com"
}
